 ADDRESS   00 01 02 03 04 05 06 07 08 09 0A 0B 0C 0D 0E 0F   0123456789ABCDEF 
------------------------------------------------------------------------------
 00005330                          00 00 00 00 00 00 00 40           .......@ 
 00005340  00 00 80 40 00 00 C0 40 00 00 00 41 00 00 20 41   ...@...@...A.. A 
 00005350  00 00 40 41 00 00 60 41 00 00 80 41 00 00 90 41   ..@A..`A...A...A 
