 ADDRESS   00 01 02 03 04 05 06 07 08 09 0A 0B 0C 0D 0E 0F   0123456789ABCDEF 
------------------------------------------------------------------------------
 00009610  00 00 00 00 01 00 00 00 02 00 00 00 03 00 00 00   ................ 
 00009620  04 00 00 00 05 00 00 00 06 00 00 00 07 00 00 00   ................ 
 00009630  08 00 00 00 09 00 00 00 E4 00 00 00 EA 00 00 00   ................ 
 00009640  0A 00 00 00 EC 00 00 00 0B 00 02 00 0C 00 20 00   .............. . 
