 ADDRESS   00 01 02 03 04 05 06 07 08 09 0A 0B 0C 0D 0E 0F   0123456789ABCDEF 
------------------------------------------------------------------------------
 00009300  03 01 0A 00 EA 00 FF FF 00 00 00 00 00 01 0D 00   ................ 
 00009310  EC 00 FF FF 00 00 00 00 03 01 27 00 EB 00 FF FF   ..........'..... 
 00009320  00 00 00 00 00 01 2A 00 ED 00 FF FF 00 00 00 00   ......*......... 
 00009330  02 01 55 00 E9 00 FF FF 00 00 00 00 02 01 B1 00   ..U............. 
 00009340  E7 00 FF FF 00 00 00 00                           ........         
