 ADDRESS   00 01 02 03 04 05 06 07 08 09 0A 0B 0C 0D 0E 0F   0123456789ABCDEF 
------------------------------------------------------------------------------
 00001540  02 00 00 00 00 00 00 00 36 00 01 00 01 00 01 00   ........6....... 
 00001550  46 00 02 00 02 00 02 00 96 00 03 00 03 00 03 00   F............... 
 00001560  B6 00 04 00 04 00 04 00 D6 00 05 00 05 00 05 00   ................ 
 00001570  DA 00 06 00 06 00 06 00 5A 01 07 00 07 00 07 00   ........Z....... 
 00001580  82 01 08 00 08 00 08 00 3A 02 09 00 09 00 09 00   ........:....... 
